[
  {
    "id": 1,
    "request_id": 154,
    "date": "2016-10-26",
    "message": "Het verzoek is aangemaakt"
  },
  {
    "id": 2,
    "request_id": 154,
    "date": "2016-10-28",
    "message": "De beschrijving van het verzoek is aangepast."
  },
  {
    "id": 3,
    "request_id": 154,
    "date": "2016-10-30",
    "message": "De beschrijving van het verzoek is aangepast."
  },
  {
    "id": 4,
    "request_id": 154,
    "date": "2016-10-30",
    "message": "De status van het verzoek is aangepast: ready"
  },
  {
    "id": 5,
    "request_id": 154,
    "date": "2016-10-30",
    "message": "Het verzoek is verstuurd naar de bronhouder"
  },
  {
    "id": 6,
    "request_id": 154,
    "date": "2016-10-30",
    "message": "De status van het verzoek is aangepast: filed"
  },
  {
    "id": 7,
    "request_id": 154,
    "date": "2016-10-30",
    "message": "Nieuw bericht ontvangen"
  },
  {
    "id": 8,
    "request_id": 154,
    "date": "2017-04-03",
    "message": "Nieuw bericht ontvangen"
  },
  {
    "id": 9,
    "request_id": 154,
    "date": "2017-04-03",
    "message": "De status van het verzoek is aangepast: partial"
  },
  {
    "id": 10,
    "request_id": 154,
    "date": "2017-04-03",
    "message": "Nieuw bericht Ontvangen"
  },
  {
    "id": 11,
    "request_id": 154,
    "date": "2017-11-09",
    "message": "Nieuw bericht Ontvangen"
  }
]